…
``` r
   (JAtidy<-austen_books() %>%
   group_by(book) %>%
   unnest_tokens(word, text) %>% 
   anti_join(stop_words) %>% 
   ungroup())
```

    ## Joining, by = "word"

    ## Warning in NextMethod(): number of items to replace is not a multiple of
    ## replacement length

    ## # A tibble: 217,609 x 2
    ##    book                word       
    ##    <fct>               <chr>      
    ##  1 Sense & Sensibility sense      
    ##  2 Sense & Sensibility sensibility
    ##  3 Sense & Sensibility jane       
    ##  4 Sense & Sensibility austen     
    ##  5 Sense & Sensibility 1811       
    ##  6 Sense & Sensibility chapter    
    ##  7 Sense & Sensibility 1          
    ##  8 Sense & Sensibility family     
    ##  9 Sense & Sensibility dashwood   
    ## 10 Sense & Sensibility settled    
    ## # ... with 217,599 more rows
…
