…
``` r
gapminder %>% 
  group_by(country) %>% 
  summarise(lifeExp=mean(lifeExp),pop=mean(pop),gdpPercap=mean(gdpPercap)) %>% 
  arrange(desc(gdpPercap))
```

    ## `summarise()` ungrouping output (override with `.groups` argument)

    ## # A tibble: 142 x 4
    ##    country       lifeExp        pop gdpPercap
    ##    <fct>           <dbl>      <dbl>     <dbl>
    ##  1 Kuwait           68.9   1206496.    65333.
    ##  2 Switzerland      75.6   6384293.    27074.
    ##  3 Norway           75.8   4031441.    26747.
    ##  4 United States    73.5 228211232.    26261.
    ##  5 Canada           74.9  24462967.    22411.
    ##  6 Netherlands      75.6  13786798.    21749.
    ##  7 Denmark          74.4   4994187.    21672.
    ##  8 Germany          73.4  77547043.    20557.
    ##  9 Iceland          76.5    226978.    20531.
    ## 10 Austria          73.1   7583298.    20412.
    ## # … with 132 more rows
